{
  "time": 1643001358474,
  "first10": [
    {
      "userId": 163123680656810000,
      "score": 31900414,
      "rank": 1,
      "isOwn": false,
      "name": "Matt ~",
      "userCard": {
        "cardId": 129,
        "level": 60,
        "masterRank": 5,
        "specialTrainingStatus": "done",
        "defaultImage": "special_training"
      },
      "userProfile": {
        "userId": 163123680656810000,
        "word": " ʕ •ᴥ•ʔゝ☆",
        "honorId1": 211,
        "honorLevel1": 1,
        "honorId2": 25,
        "honorLevel2": 5,
        "honorId3": 17,
        "honorLevel3": 3,
        "twitterId": "Sekaisaki",
        "profileImageType": "leader"
      }
    },
    {
      "userId": 171884192542601200,
      "score": 25319414,
      "rank": 2,
      "isOwn": false,
      "name": "frownie",
      "userCard": {
        "cardId": 25,
        "level": 20,
        "masterRank": 5,
        "specialTrainingStatus": "not_doing",
        "defaultImage": "original"
      },
      "userProfile": {
        "userId": 171884192542601200,
        "word": "わらびもち　ぷるんぷるーん！",
        "twitterId": "frownieman",
        "profileImageType": "leader"
      }
    },
    {
      "userId": 162305833554751500,
      "score": 23456789,
      "rank": 3,
      "isOwn": false,
      "name": "Kiri ~",
      "userCard": {
        "cardId": 129,
        "level": 60,
        "masterRank": 5,
        "specialTrainingStatus": "done",
        "defaultImage": "special_training"
      },
      "userProfile": {
        "userId": 162305833554751500,
        "word": "Airi mi amor ~ ♡",
        "honorId1": 185,
        "honorLevel1": 1,
        "honorId2": 25,
        "honorLevel2": 3,
        "honorId3": 115,
        "honorLevel3": 1,
        "twitterId": "kirisahki",
        "profileImageType": "leader"
      }
    },
    {
      "userId": 163732353926115330,
      "score": 21039319,
      "rank": 4,
      "isOwn": false,
      "name": "[MASH] reese #swag",
      "userCard": {
        "cardId": 129,
        "level": 60,
        "masterRank": 0,
        "specialTrainingStatus": "done",
        "defaultImage": "special_training"
      },
      "userProfile": {
        "userId": 163732353926115330,
        "word": "39, 3/19 — thank you, airi",
        "honorId1": 25,
        "honorLevel1": 4,
        "honorId2": 29,
        "honorLevel2": 2,
        "honorId3": 210,
        "honorLevel3": 1,
        "twitterId": "tofuxiao",
        "profileImageType": "leader"
      }
    },
    {
      "userId": 162318628467875840,
      "score": 16121226,
      "rank": 5,
      "isOwn": false,
      "name": "Fuee",
      "userCard": {
        "cardId": 130,
        "level": 60,
        "masterRank": 5,
        "specialTrainingStatus": "done",
        "defaultImage": "original"
      },
      "userProfile": {
        "userId": 162318628467875840,
        "word": "Going all out for top 10 :’)",
        "honorId1": 309,
        "honorLevel1": 1,
        "honorId2": 192,
        "honorLevel2": 1,
        "honorId3": 364,
        "honorLevel3": 1,
        "twitterId": "",
        "profileImageType": "leader"
      }
    },
    {
      "userId": 165240380600700930,
      "score": 15210414,
      "rank": 6,
      "isOwn": false,
      "name": "Yui",
      "userCard": {
        "cardId": 130,
        "level": 60,
        "masterRank": 1,
        "specialTrainingStatus": "done",
        "defaultImage": "special_training"
      },
      "userProfile": {
        "userId": 165240380600700930,
        "word": "2/10 Kanade • 4/14 Minori",
        "honorId1": 17,
        "honorLevel1": 4,
        "honorId2": 318,
        "honorLevel2": 1,
        "honorId3": 21,
        "honorLevel3": 3,
        "twitterId": "Kan_Yoisaki",
        "profileImageType": "leader"
      }
    },
    {
      "userId": 162402625063555070,
      "score": 14208898,
      "rank": 7,
      "isOwn": false,
      "name": "Catboy",
      "userCard": {
        "cardId": 131,
        "level": 60,
        "masterRank": 0,
        "specialTrainingStatus": "done",
        "defaultImage": "original"
      },
      "userProfile": {
        "userId": 162402625063555070,
        "word": "airi fan first human 2nd",
        "honorId1": 25,
        "honorLevel1": 4,
        "honorId2": 29,
        "honorLevel2": 3,
        "honorId3": 237,
        "honorLevel3": 1,
        "twitterId": "dishwatersIog",
        "profileImageType": "leader"
      }
    },
    {
      "userId": 162327043307053060,
      "score": 14140414,
      "rank": 8,
      "isOwn": false,
      "name": "Commi",
      "userCard": {
        "cardId": 130,
        "level": 60,
        "masterRank": 0,
        "specialTrainingStatus": "done",
        "defaultImage": "original"
      },
      "userProfile": {
        "userId": 162327043307053060,
        "word": "みのり, 家に帰ってください~",
        "honorId1": 17,
        "honorLevel1": 4,
        "honorId2": 129,
        "honorLevel2": 1,
        "honorId3": 137,
        "honorLevel3": 1,
        "twitterId": "commi_jump",
        "profileImageType": "leader"
      }
    },
    {
      "userId": 162814923901063170,
      "score": 14140414,
      "rank": 9,
      "isOwn": false,
      "name": "Yui Ogura",
      "userCard": {
        "cardId": 19,
        "level": 50,
        "masterRank": 5,
        "specialTrainingStatus": "done",
        "defaultImage": "original"
      },
      "userProfile": {
        "userId": 162814923901063170,
        "word": "Only Minori",
        "honorId1": 17,
        "honorLevel1": 4,
        "twitterId": "yui_ogura_815",
        "profileImageType": "leader"
      }
    },
    {
      "userId": 162321423933739000,
      "score": 13200365,
      "rank": 10,
      "isOwn": false,
      "name": "[MASH] Marin",
      "userCard": {
        "cardId": 129,
        "level": 60,
        "masterRank": 0,
        "specialTrainingStatus": "done",
        "defaultImage": "original"
      },
      "userProfile": {
        "userId": 162321423933739000,
        "word": "Momoi pose ♡!!!",
        "honorId1": 25,
        "honorLevel1": 4,
        "honorId2": 21,
        "honorLevel2": 2,
        "honorId3": 29,
        "honorLevel3": 2,
        "twitterId": "",
        "profileImageType": "leader"
      }
    }
  ],
  "rank20": [
    {
      "userId": 164344027188056060,
      "score": 9190529,
      "rank": 20,
      "isOwn": false,
      "name": "happy every day",
      "userCard": {
        "cardId": 88,
        "level": 60,
        "masterRank": 0,
        "specialTrainingStatus": "done",
        "defaultImage": "special_training"
      },
      "userProfile": {
        "userId": 164344027188056060,
        "word": "日本人。TOP30狙い。",
        "honorId1": 129,
        "honorLevel1": 1,
        "honorId2": 81,
        "honorLevel2": 3,
        "honorId3": 25,
        "honorLevel3": 3,
        "twitterId": "",
        "profileImageType": "leader"
      }
    }
  ],
  "rank30": [
    {
      "userId": 162324001346113540,
      "score": 6302642,
      "rank": 30,
      "isOwn": false,
      "name": "Daniel | AiriSoCute",
      "userCard": {
        "cardId": 129,
        "level": 60,
        "masterRank": 5,
        "specialTrainingStatus": "done",
        "defaultImage": "original"
      },
      "userProfile": {
        "userId": 162324001346113540,
        "word": "Day 1 JP | Pink = Cute",
        "honorId1": 25,
        "honorLevel1": 4,
        "twitterId": "",
        "profileImageType": "leader"
      }
    }
  ],
  "rank40": [
    {
      "userId": 162306328805552130,
      "score": 5059394,
      "rank": 40,
      "isOwn": false,
      "name": "Fury ",
      "userCard": {
        "cardId": 19,
        "level": 50,
        "masterRank": 5,
        "specialTrainingStatus": "done",
        "defaultImage": "special_training"
      },
      "userProfile": {
        "userId": 162306328805552130,
        "word": "Bnp collab when?",
        "honorId1": 313,
        "honorLevel1": 1,
        "honorId2": 289,
        "honorLevel2": 1,
        "honorId3": 146,
        "honorLevel3": 1,
        "twitterId": "Gameenjoyer1",
        "profileImageType": "leader"
      }
    }
  ],
  "rank50": [
    {
      "userId": 163824659740000260,
      "score": 4505927,
      "rank": 50,
      "isOwn": false,
      "name": "Pandar",
      "userCard": {
        "cardId": 130,
        "level": 60,
        "masterRank": 5,
        "specialTrainingStatus": "done",
        "defaultImage": "special_training"
      },
      "userProfile": {
        "userId": 163824659740000260,
        "word": "Me more more jump",
        "honorId1": 17,
        "honorLevel1": 4,
        "honorId2": 266,
        "honorLevel2": 1,
        "honorId3": 196,
        "honorLevel3": 1,
        "twitterId": "",
        "profileImageType": "leader"
      }
    }
  ],
  "rank100": [
    {
      "userId": 168736446537113600,
      "score": 2970690,
      "rank": 100,
      "isOwn": false,
      "name": "[PJFS] Scoot",
      "userCard": {
        "cardId": 88,
        "level": 60,
        "masterRank": 0,
        "specialTrainingStatus": "done",
        "defaultImage": "special_training"
      },
      "userProfile": {
        "userId": 168736446537113600,
        "word": "",
        "honorId1": 129,
        "honorLevel1": 1,
        "honorId2": 17,
        "honorLevel2": 2,
        "honorId3": 29,
        "honorLevel3": 1,
        "twitterId": "",
        "profileImageType": "leader"
      }
    }
  ],
  "rank200": [
    {
      "userId": 166454293610733570,
      "score": 1803143,
      "rank": 200,
      "isOwn": false,
      "name": "Alex",
      "userCard": {
        "cardId": 4,
        "level": 60,
        "masterRank": 0,
        "specialTrainingStatus": "done",
        "defaultImage": "special_training"
      },
      "userProfile": {
        "userId": 166454293610733570,
        "word": "Stan Louis",
        "honorId1": 367,
        "honorLevel1": 1,
        "honorId2": 145,
        "honorLevel2": 1,
        "honorId3": 316,
        "honorLevel3": 1,
        "twitterId": "",
        "profileImageType": "leader"
      }
    }
  ],
  "rank300": [
    {
      "userId": 162312187103215600,
      "score": 1442294,
      "rank": 300,
      "isOwn": false,
      "name": "Maru",
      "userCard": {
        "cardId": 92,
        "level": 60,
        "masterRank": 0,
        "specialTrainingStatus": "done",
        "defaultImage": "special_training"
      },
      "userProfile": {
        "userId": 162312187103215600,
        "word": "Ready Steady Enjoyer.",
        "honorId1": 186,
        "honorLevel1": 1,
        "honorId2": 89,
        "honorLevel2": 3,
        "honorId3": 252,
        "honorLevel3": 1,
        "twitterId": "samakin_pie",
        "profileImageType": "leader"
      }
    }
  ],
  "rank400": [
    {
      "userId": 177712528816627700,
      "score": 1250583,
      "rank": 400,
      "isOwn": false,
      "name": "Ayaka",
      "userCard": {
        "cardId": 132,
        "level": 50,
        "masterRank": 0,
        "specialTrainingStatus": "done",
        "defaultImage": "special_training"
      },
      "userProfile": {
        "userId": 177712528816627700,
        "word": "",
        "honorId1": 29,
        "honorLevel1": 1,
        "honorId2": 107,
        "honorLevel2": 1,
        "honorId3": 237,
        "honorLevel3": 1,
        "twitterId": "",
        "profileImageType": "leader"
      }
    }
  ],
  "rank500": [
    {
      "userId": 162713739487883260,
      "score": 1202964,
      "rank": 500,
      "isOwn": false,
      "name": "Haai",
      "userCard": {
        "cardId": 131,
        "level": 45,
        "masterRank": 0,
        "specialTrainingStatus": "not_doing",
        "defaultImage": "original"
      },
      "userProfile": {
        "userId": 162713739487883260,
        "word": "thumb player",
        "honorId1": 129,
        "honorLevel1": 1,
        "honorId2": 109,
        "honorLevel2": 1,
        "honorId3": 145,
        "honorLevel3": 1,
        "twitterId": "",
        "profileImageType": "leader"
      }
    }
  ],
  "rank1000": [
    {
      "userId": 162313050379038720,
      "score": 924594,
      "rank": 1000,
      "isOwn": false,
      "name": "sakura",
      "userCard": {
        "cardId": 137,
        "level": 50,
        "masterRank": 5,
        "specialTrainingStatus": "done",
        "defaultImage": "original"
      },
      "userProfile": {
        "userId": 162313050379038720,
        "word": "hello~!! akito enthusiast~",
        "honorId1": 45,
        "honorLevel1": 4,
        "honorId2": 240,
        "honorLevel2": 1,
        "honorId3": 41,
        "honorLevel3": 2,
        "twitterId": "",
        "profileImageType": "leader"
      }
    }
  ],
  "rank2000": [
    {
      "userId": 177770508467638270,
      "score": 672001,
      "rank": 2000,
      "isOwn": false,
      "name": "Narumi",
      "userCard": {
        "cardId": 75,
        "level": 50,
        "masterRank": 1,
        "specialTrainingStatus": "done",
        "defaultImage": "special_training"
      },
      "userProfile": {
        "userId": 177770508467638270,
        "word": "Ena!!!!!",
        "honorId1": 73,
        "honorLevel1": 1,
        "honorId2": 129,
        "honorLevel2": 1,
        "honorId3": 130,
        "honorLevel3": 1,
        "twitterId": "Anyaliuuu",
        "profileImageType": "leader"
      }
    }
  ],
  "rank3000": [
    {
      "userId": 174396591506010100,
      "score": 580124,
      "rank": 3000,
      "isOwn": false,
      "name": "ham",
      "userCard": {
        "cardId": 131,
        "level": 60,
        "masterRank": 0,
        "specialTrainingStatus": "done",
        "defaultImage": "special_training"
      },
      "userProfile": {
        "userId": 174396591506010100,
        "word": "",
        "honorId1": 73,
        "honorLevel1": 1,
        "honorId2": 53,
        "honorLevel2": 1,
        "honorId3": 49,
        "honorLevel3": 1,
        "twitterId": "",
        "profileImageType": "leader"
      }
    }
  ],
  "rank4000": [
    {
      "userId": 168514087137886200,
      "score": 520078,
      "rank": 4000,
      "isOwn": false,
      "name": "Elixer",
      "userCard": {
        "cardId": 131,
        "level": 60,
        "masterRank": 0,
        "specialTrainingStatus": "done",
        "defaultImage": "original"
      },
      "userProfile": {
        "userId": 168514087137886200,
        "word": "Hi",
        "twitterId": "",
        "profileImageType": "leader"
      }
    }
  ],
  "rank5000": [
    {
      "userId": 165117981091807230,
      "score": 481679,
      "rank": 5000,
      "isOwn": false,
      "name": "Reis",
      "userCard": {
        "cardId": 132,
        "level": 40,
        "masterRank": 0,
        "specialTrainingStatus": "not_doing",
        "defaultImage": "original"
      },
      "userProfile": {
        "userId": 165117981091807230,
        "word": "Stay safe everyone",
        "honorId1": 49,
        "honorLevel1": 2,
        "honorId2": 320,
        "honorLevel2": 1,
        "honorId3": 235,
        "honorLevel3": 1,
        "twitterId": "",
        "profileImageType": "leader"
      }
    }
  ],
  "rank10000": [
    {
      "userId": 162341420248694800,
      "score": 320417,
      "rank": 10000,
      "isOwn": false,
      "name": "layercake",
      "userCard": {
        "cardId": 27,
        "level": 50,
        "masterRank": 0,
        "specialTrainingStatus": "done",
        "defaultImage": "special_training"
      },
      "userProfile": {
        "userId": 162341420248694800,
        "word": "",
        "honorId1": 77,
        "honorLevel1": 2,
        "honorId2": 25,
        "honorLevel2": 1,
        "honorId3": 320,
        "honorLevel3": 1,
        "twitterId": "circusreject",
        "profileImageType": "leader"
      }
    }
  ],
  "rank20000": [
    {
      "userId": 162333853254479870,
      "score": 196049,
      "rank": 20000,
      "isOwn": false,
      "name": "Aria",
      "userCard": {
        "cardId": 19,
        "level": 50,
        "masterRank": 0,
        "specialTrainingStatus": "done",
        "defaultImage": "special_training"
      },
      "userProfile": {
        "userId": 162333853254479870,
        "word": "hiiiii!!!",
        "honorId1": 65,
        "honorLevel1": 3,
        "honorId2": 69,
        "honorLevel2": 2,
        "honorId3": 271,
        "honorLevel3": 1,
        "twitterId": "Naree80391165",
        "profileImageType": "leader"
      }
    }
  ],
  "rank30000": [
    {
      "userId": 178432467143778300,
      "score": 132003,
      "rank": 30000,
      "isOwn": false,
      "name": "maru",
      "userCard": {
        "cardId": 95,
        "level": 33,
        "masterRank": 0,
        "specialTrainingStatus": "not_doing",
        "defaultImage": "original"
      },
      "userProfile": {
        "userId": 178432467143778300,
        "word": "",
        "honorId1": 105,
        "honorLevel1": 1,
        "honorId2": 127,
        "honorLevel2": 1,
        "twitterId": "",
        "profileImageType": "leader"
      }
    }
  ],
  "rank40000": [
    {
      "userId": 162315199783682050,
      "score": 88485,
      "rank": 40000,
      "isOwn": false,
      "name": "jinkuchann",
      "userCard": {
        "cardId": 111,
        "level": 60,
        "masterRank": 0,
        "specialTrainingStatus": "done",
        "defaultImage": "special_training"
      },
      "userProfile": {
        "userId": 162315199783682050,
        "word": "casual rhythm gamer. :>",
        "honorId1": 240,
        "honorLevel1": 1,
        "honorId2": 33,
        "honorLevel2": 1,
        "honorId3": 45,
        "honorLevel3": 1,
        "twitterId": "",
        "profileImageType": "leader"
      }
    }
  ],
  "rank50000": [
    {
      "userId": 176683422519943170,
      "score": 61125,
      "rank": 50000,
      "isOwn": false,
      "name": "Ina'Tako",
      "userCard": {
        "cardId": 85,
        "level": 30,
        "masterRank": 0,
        "specialTrainingStatus": "not_doing",
        "defaultImage": "original"
      },
      "userProfile": {
        "userId": 176683422519943170,
        "profileImageType": "leader"
      }
    }
  ],
  "rank100000": [
    {
      "userId": 166030351511179260,
      "score": 10350,
      "rank": 100000,
      "isOwn": false,
      "name": "PencilWw",
      "userCard": {
        "cardId": 107,
        "level": 50,
        "masterRank": 5,
        "specialTrainingStatus": "done",
        "defaultImage": "special_training"
      },
      "userProfile": {
        "userId": 166030351511179260,
        "word": "pen kon thai ka!!",
        "honorId1": 101,
        "honorLevel1": 2,
        "honorId2": 85,
        "honorLevel2": 1,
        "honorId3": 89,
        "honorLevel3": 1,
        "twitterId": "",
        "profileImageType": "leader"
      }
    }
  ]
}