{
  "time": 1647148558197,
  "first10": [
    {
      "userId": 162698212245774340,
      "score": 32002022,
      "rank": 1,
      "isOwn": false,
      "name": "Hiyori",
      "userCard": {
        "cardId": 165,
        "level": 60,
        "masterRank": 5,
        "specialTrainingStatus": "done",
        "defaultImage": "special_training"
      },
      "userProfile": {
        "userId": 162698212245774340,
        "word": "kohammy bday park, otsu! 辛苦了!",
        "honorId1": 366,
        "honorLevel1": 1,
        "honorId2": 33,
        "honorLevel2": 3,
        "honorId3": 45,
        "honorLevel3": 4,
        "twitterId": "otsu RAD!",
        "profileImageType": "leader"
      },
      "userCheerfulCarnival": {}
    },
    {
      "userId": 162348874537648130,
      "score": 32002022,
      "rank": 2,
      "isOwn": false,
      "name": "annie",
      "userCard": {
        "cardId": 166,
        "level": 60,
        "masterRank": 5,
        "specialTrainingStatus": "done",
        "defaultImage": "special_training"
      },
      "userProfile": {
        "userId": 162348874537648130,
        "word": "shinonomes!",
        "honorId1": 360,
        "honorLevel1": 1,
        "honorId2": 74,
        "honorLevel2": 1,
        "honorId3": 436,
        "honorLevel3": 1,
        "twitterId": "a_prsk",
        "profileImageType": "leader"
      },
      "userCheerfulCarnival": {}
    },
    {
      "userId": 162304911000768500,
      "score": 32002022,
      "rank": 3,
      "isOwn": false,
      "name": "Lemo",
      "userCard": {
        "cardId": 168,
        "level": 50,
        "masterRank": 5,
        "specialTrainingStatus": "done",
        "defaultImage": "original"
      },
      "userProfile": {
        "userId": 162304911000768500,
        "word": "下一次相约在樱花绽放的季节再见",
        "honorId1": 359,
        "honorLevel1": 1,
        "honorId2": 34,
        "honorLevel2": 1,
        "honorId3": 38,
        "honorLevel3": 1,
        "twitterId": "LemoDcat",
        "profileImageType": "leader"
      },
      "userCheerfulCarnival": {}
    },
    {
      "userId": 162580919599837200,
      "score": 24905738,
      "rank": 4,
      "isOwn": false,
      "name": "Kanade Only",
      "userCard": {
        "cardId": 116,
        "level": 60,
        "masterRank": 5,
        "specialTrainingStatus": "done",
        "defaultImage": "special_training"
      },
      "userProfile": {
        "userId": 162580919599837200,
        "word": "twitch.tv/kanadeonly OTSU~~ <3",
        "honorId1": 65,
        "honorLevel1": 5,
        "honorId2": 260,
        "honorLevel2": 1,
        "honorId3": 488,
        "honorLevel3": 1,
        "twitterId": "kanadebestgirl",
        "profileImageType": "leader"
      },
      "userCheerfulCarnival": {}
    },
    {
      "userId": 162813708802785280,
      "score": 22269420,
      "rank": 5,
      "isOwn": false,
      "name": "[RAD] TOYA LOVER ^_^",
      "userCard": {
        "cardId": 165,
        "level": 60,
        "masterRank": 5,
        "specialTrainingStatus": "done",
        "defaultImage": "original"
      },
      "userProfile": {
        "userId": 162813708802785280,
        "word": "토우아키는나의소중한게이들임 ♡",
        "honorId1": 45,
        "honorLevel1": 5,
        "honorId2": 115,
        "honorLevel2": 1,
        "honorId3": 42,
        "honorLevel3": 1,
        "twitterId": "RUlAKl",
        "profileImageType": "leader"
      },
      "userCheerfulCarnival": {}
    },
    {
      "userId": 162967502630981630,
      "score": 20243471,
      "rank": 6,
      "isOwn": false,
      "name": "May Interlude",
      "userCard": {
        "cardId": 165,
        "level": 60,
        "masterRank": 5,
        "specialTrainingStatus": "done",
        "defaultImage": "special_training"
      },
      "userProfile": {
        "userId": 162967502630981630,
        "word": "Beethoven’s Piano Sonata No. 8",
        "honorId1": 288,
        "honorLevel1": 1,
        "honorId2": 65,
        "honorLevel2": 4,
        "honorId3": 45,
        "honorLevel3": 5,
        "twitterId": "luminmay",
        "profileImageType": "leader"
      },
      "userCheerfulCarnival": {}
    },
    {
      "userId": 163078160131383300,
      "score": 20220525,
      "rank": 7,
      "isOwn": false,
      "name": "saph",
      "userCard": {
        "cardId": 165,
        "level": 60,
        "masterRank": 5,
        "specialTrainingStatus": "done",
        "defaultImage": "special_training"
      },
      "userProfile": {
        "userId": 163078160131383300,
        "word": "toya bday park! otsu ♡",
        "honorId1": 437,
        "honorLevel1": 1,
        "honorId2": 361,
        "honorLevel2": 1,
        "honorId3": 46,
        "honorLevel3": 1,
        "twitterId": "nyxate",
        "profileImageType": "leader"
      },
      "userCheerfulCarnival": {}
    },
    {
      "userId": 164868774632116220,
      "score": 20159773,
      "rank": 8,
      "isOwn": false,
      "name": "[RADB2B] Ciry",
      "userCard": {
        "cardId": 167,
        "level": 60,
        "masterRank": 1,
        "specialTrainingStatus": "done",
        "defaultImage": "original"
      },
      "userProfile": {
        "userId": 164868774632116220,
        "word": "OTSU EVERYONE!!!!!!",
        "honorId1": 129,
        "honorLevel1": 1,
        "honorId2": 366,
        "honorLevel2": 1,
        "honorId3": 391,
        "honorLevel3": 1,
        "twitterId": "polarithm",
        "profileImageType": "leader"
      },
      "userCheerfulCarnival": {}
    },
    {
      "userId": 162680905972961280,
      "score": 18089833,
      "rank": 9,
      "isOwn": false,
      "name": "Ray!",
      "userCard": {
        "cardId": 165,
        "level": 60,
        "masterRank": 0,
        "specialTrainingStatus": "done",
        "defaultImage": "special_training"
      },
      "userProfile": {
        "userId": 162680905972961280,
        "word": "Otsu all!",
        "honorId1": 366,
        "honorLevel1": 1,
        "honorId2": 240,
        "honorLevel2": 1,
        "honorId3": 41,
        "honorLevel3": 4,
        "twitterId": "akty gay",
        "profileImageType": "leader"
      },
      "userCheerfulCarnival": {}
    },
    {
      "userId": 162405159299756030,
      "score": 18011112,
      "rank": 10,
      "isOwn": false,
      "name": "[RAD] maku!@DB",
      "userCard": {
        "cardId": 136,
        "level": 60,
        "masterRank": 3,
        "specialTrainingStatus": "done",
        "defaultImage": "special_training"
      },
      "userProfile": {
        "userId": 162405159299756030,
        "word": "stinkynonome bday park ♡ otsu!",
        "honorId1": 101,
        "honorLevel1": 3,
        "honorId2": 41,
        "honorLevel2": 4,
        "honorId3": 45,
        "honorLevel3": 4,
        "twitterId": "vocajiiro",
        "profileImageType": "leader"
      },
      "userCheerfulCarnival": {}
    }
  ],
  "rank20": [
    {
      "userId": 187923595077406720,
      "score": 12000001,
      "rank": 20,
      "isOwn": false,
      "name": "hoya !",
      "userCard": {
        "cardId": 168,
        "level": 40,
        "masterRank": 0,
        "specialTrainingStatus": "done",
        "defaultImage": "special_training"
      },
      "userProfile": {
        "userId": 187923595077406720,
        "word": "otsu !! :D enjoyed tiering !",
        "honorId1": 475,
        "honorLevel1": 1,
        "honorId2": 45,
        "honorLevel2": 2,
        "honorId3": 255,
        "honorLevel3": 1,
        "twitterId": "smileyhsk",
        "profileImageType": "leader"
      },
      "userCheerfulCarnival": {}
    }
  ],
  "rank30": [
    {
      "userId": 162809775090855940,
      "score": 8447214,
      "rank": 30,
      "isOwn": false,
      "name": "[RAD] Jiazhen",
      "userCard": {
        "cardId": 167,
        "level": 60,
        "masterRank": 0,
        "specialTrainingStatus": "done",
        "defaultImage": "special_training"
      },
      "userProfile": {
        "userId": 162809775090855940,
        "word": "otsuuu",
        "honorId1": 445,
        "honorLevel1": 1,
        "honorId2": 45,
        "honorLevel2": 2,
        "honorId3": 37,
        "honorLevel3": 3,
        "twitterId": "rotocatch",
        "profileImageType": "leader"
      },
      "userCheerfulCarnival": {}
    }
  ],
  "rank40": [
    {
      "userId": 168786619728400400,
      "score": 6770000,
      "rank": 40,
      "isOwn": false,
      "name": "dino",
      "userCard": {
        "cardId": 168,
        "level": 50,
        "masterRank": 0,
        "specialTrainingStatus": "done",
        "defaultImage": "special_training"
      },
      "userProfile": {
        "userId": 168786619728400400,
        "word": "i like tsukasa a normal amount",
        "honorId1": 49,
        "honorLevel1": 5,
        "honorId2": 287,
        "honorLevel2": 1,
        "honorId3": 419,
        "honorLevel3": 1,
        "twitterId": "",
        "profileImageType": "leader"
      },
      "userCheerfulCarnival": {}
    }
  ],
  "rank50": [
    {
      "userId": 162322124260818940,
      "score": 6637694,
      "rank": 50,
      "isOwn": false,
      "name": "Fantastic",
      "userCard": {
        "cardId": 111,
        "level": 60,
        "masterRank": 0,
        "specialTrainingStatus": "done",
        "defaultImage": "special_training"
      },
      "userProfile": {
        "userId": 162322124260818940,
        "word": "Kanade is the greatest ",
        "honorId1": 65,
        "honorLevel1": 3,
        "honorId2": 493,
        "honorLevel2": 1,
        "honorId3": 77,
        "honorLevel3": 2,
        "twitterId": "",
        "profileImageType": "leader"
      },
      "userCheerfulCarnival": {}
    }
  ],
  "rank100": [
    {
      "userId": 162306377501487100,
      "score": 4221013,
      "rank": 100,
      "isOwn": false,
      "name": "angel!",
      "userCard": {
        "cardId": 141,
        "level": 60,
        "masterRank": 0,
        "specialTrainingStatus": "done",
        "defaultImage": "special_training"
      },
      "userProfile": {
        "userId": 162306377501487100,
        "word": "♡ gr kch brainrot",
        "honorId1": 290,
        "honorLevel1": 1,
        "honorId2": 418,
        "honorLevel2": 1,
        "honorId3": 61,
        "honorLevel3": 3,
        "twitterId": "arcanaburst",
        "profileImageType": "leader"
      },
      "userCheerfulCarnival": {}
    }
  ],
  "rank200": [
    {
      "userId": 162415705944227840,
      "score": 1980404,
      "rank": 200,
      "isOwn": false,
      "name": "Waiting my akitouya",
      "userCard": {
        "cardId": 109,
        "level": 60,
        "masterRank": 0,
        "specialTrainingStatus": "done",
        "defaultImage": "special_training"
      },
      "userProfile": {
        "userId": 162415705944227840,
        "word": "waiting 4 luka *4 :)",
        "honorId1": 45,
        "honorLevel1": 3,
        "honorId2": 444,
        "honorLevel2": 1,
        "honorId3": 468,
        "honorLevel3": 1,
        "twitterId": "",
        "profileImageType": "leader"
      },
      "userCheerfulCarnival": {}
    }
  ],
  "rank300": [
    {
      "userId": 163734563531640830,
      "score": 1576928,
      "rank": 300,
      "isOwn": false,
      "name": "Ashbe",
      "userCard": {
        "cardId": 134,
        "level": 60,
        "masterRank": 0,
        "specialTrainingStatus": "done",
        "defaultImage": "special_training"
      },
      "userProfile": {
        "userId": 163734563531640830,
        "word": "",
        "honorId1": 369,
        "honorLevel1": 1,
        "honorId2": 37,
        "honorLevel2": 3,
        "honorId3": 33,
        "honorLevel3": 2,
        "twitterId": "",
        "profileImageType": "leader"
      },
      "userCheerfulCarnival": {}
    }
  ],
  "rank400": [
    {
      "userId": 162307797650874370,
      "score": 1431520,
      "rank": 400,
      "isOwn": false,
      "name": "Sarah",
      "userCard": {
        "cardId": 94,
        "level": 30,
        "masterRank": 5,
        "specialTrainingStatus": "not_doing",
        "defaultImage": "original"
      },
      "userProfile": {
        "userId": 162307797650874370,
        "word": "",
        "honorId1": 493,
        "honorLevel1": 1,
        "honorId2": 238,
        "honorLevel2": 1,
        "honorId3": 226,
        "honorLevel3": 4,
        "twitterId": "Sarahofmars",
        "profileImageType": "leader"
      },
      "userCheerfulCarnival": {}
    }
  ],
  "rank500": [
    {
      "userId": 165517898620669950,
      "score": 1393394,
      "rank": 500,
      "isOwn": false,
      "name": "Minht",
      "userCard": {
        "cardId": 166,
        "level": 60,
        "masterRank": 0,
        "specialTrainingStatus": "done",
        "defaultImage": "special_training"
      },
      "userProfile": {
        "userId": 165517898620669950,
        "word": "\\(•◇•)/ have a wonderful day!",
        "honorId1": 37,
        "honorLevel1": 2,
        "honorId2": 33,
        "honorLevel2": 2,
        "honorId3": 45,
        "honorLevel3": 2,
        "twitterId": "",
        "profileImageType": "leader"
      },
      "userCheerfulCarnival": {}
    }
  ],
  "rank1000": [
    {
      "userId": 163176913924333570,
      "score": 1074578,
      "rank": 1000,
      "isOwn": false,
      "name": "WASTED",
      "userCard": {
        "cardId": 50,
        "level": 30,
        "masterRank": 5,
        "specialTrainingStatus": "not_doing",
        "defaultImage": "original"
      },
      "userProfile": {
        "userId": 163176913924333570,
        "word": "うまくになりたい!",
        "honorId1": 49,
        "honorLevel1": 5,
        "honorId2": 85,
        "honorLevel2": 1,
        "honorId3": 218,
        "honorLevel3": 2,
        "twitterId": "fitripuru",
        "profileImageType": "leader"
      },
      "userCheerfulCarnival": {}
    }
  ],
  "rank2000": [
    {
      "userId": 166678657610334200,
      "score": 775594,
      "rank": 2000,
      "isOwn": false,
      "name": "Bantam Phantom",
      "userCard": {
        "cardId": 139,
        "level": 60,
        "masterRank": 0,
        "specialTrainingStatus": "done",
        "defaultImage": "original"
      },
      "userProfile": {
        "userId": 166678657610334200,
        "word": "They/them | Gender ambiguity>>",
        "honorId1": 77,
        "honorLevel1": 4,
        "honorId2": 13,
        "honorLevel2": 2,
        "honorId3": 395,
        "honorLevel3": 1,
        "twitterId": "",
        "profileImageType": "leader"
      },
      "userCheerfulCarnival": {}
    }
  ],
  "rank3000": [
    {
      "userId": 171497658689609730,
      "score": 672161,
      "rank": 3000,
      "isOwn": false,
      "name": "Kohaku",
      "userCard": {
        "cardId": 109,
        "level": 60,
        "masterRank": 5,
        "specialTrainingStatus": "done",
        "defaultImage": "special_training"
      },
      "userProfile": {
        "userId": 171497658689609730,
        "word": "",
        "honorId1": 5,
        "honorLevel1": 4,
        "honorId2": 317,
        "honorLevel2": 1,
        "honorId3": 393,
        "honorLevel3": 1,
        "twitterId": "",
        "profileImageType": "leader"
      },
      "userCheerfulCarnival": {}
    }
  ],
  "rank4000": [
    {
      "userId": 162581077922254850,
      "score": 615479,
      "rank": 4000,
      "isOwn": false,
      "name": "Echo",
      "userCard": {
        "cardId": 165,
        "level": 60,
        "masterRank": 0,
        "specialTrainingStatus": "done",
        "defaultImage": "special_training"
      },
      "userProfile": {
        "userId": 162581077922254850,
        "word": "Echo#3167",
        "honorId1": 449,
        "honorLevel1": 1,
        "honorId2": 65,
        "honorLevel2": 2,
        "honorId3": 61,
        "honorLevel3": 2,
        "twitterId": "",
        "profileImageType": "leader"
      },
      "userCheerfulCarnival": {}
    }
  ],
  "rank5000": [
    {
      "userId": 162331789220679680,
      "score": 583459,
      "rank": 5000,
      "isOwn": false,
      "name": "Kurisu",
      "userCard": {
        "cardId": 137,
        "level": 50,
        "masterRank": 0,
        "specialTrainingStatus": "done",
        "defaultImage": "special_training"
      },
      "userProfile": {
        "userId": 162331789220679680,
        "word": "Yay!",
        "honorId1": 118,
        "honorLevel1": 2,
        "honorId2": 57,
        "honorLevel2": 2,
        "honorId3": 53,
        "honorLevel3": 2,
        "twitterId": "",
        "profileImageType": "leader"
      },
      "userCheerfulCarnival": {}
    }
  ],
  "rank10000": [
    {
      "userId": 188945678108491780,
      "score": 404787,
      "rank": 10000,
      "isOwn": false,
      "name": "hinoky chan",
      "userCard": {
        "cardId": 131,
        "level": 26,
        "masterRank": 0,
        "specialTrainingStatus": "not_doing",
        "defaultImage": "original"
      },
      "userProfile": {
        "userId": 188945678108491780,
        "word": "мяв",
        "honorId1": 89,
        "honorLevel1": 3,
        "honorId2": 501,
        "honorLevel2": 1,
        "honorId3": 17,
        "honorLevel3": 1,
        "twitterId": "",
        "profileImageType": "leader"
      },
      "userCheerfulCarnival": {}
    }
  ],
  "rank20000": [
    {
      "userId": 193734911578910720,
      "score": 257880,
      "rank": 20000,
      "isOwn": false,
      "name": "Chadeth",
      "userCard": {
        "cardId": 4,
        "level": 55,
        "masterRank": 0,
        "specialTrainingStatus": "done",
        "defaultImage": "special_training"
      },
      "userProfile": {
        "userId": 193734911578910720,
        "word": "",
        "twitterId": "",
        "profileImageType": "leader"
      },
      "userCheerfulCarnival": {}
    }
  ],
  "rank30000": [
    {
      "userId": 165534976840851460,
      "score": 186019,
      "rank": 30000,
      "isOwn": false,
      "name": "liv",
      "userCard": {
        "cardId": 9,
        "level": 6,
        "masterRank": 0,
        "specialTrainingStatus": "not_doing",
        "defaultImage": "original"
      },
      "userProfile": {
        "userId": 165534976840851460,
        "word": "",
        "honorId1": 81,
        "honorLevel1": 1,
        "honorId2": 5,
        "honorLevel2": 1,
        "honorId3": 37,
        "honorLevel3": 2,
        "twitterId": "",
        "profileImageType": "leader"
      },
      "userCheerfulCarnival": {}
    }
  ],
  "rank40000": [
    {
      "userId": 169798485468626940,
      "score": 135695,
      "rank": 40000,
      "isOwn": false,
      "name": "Gaywow",
      "userCard": {
        "cardId": 129,
        "level": 60,
        "masterRank": 0,
        "specialTrainingStatus": "done",
        "defaultImage": "special_training"
      },
      "userProfile": {
        "userId": 169798485468626940,
        "word": "rui and tsukasa kiss",
        "honorId1": 49,
        "honorLevel1": 2,
        "honorId2": 41,
        "honorLevel2": 1,
        "honorId3": 61,
        "honorLevel3": 2,
        "twitterId": "",
        "profileImageType": "leader"
      },
      "userCheerfulCarnival": {}
    }
  ],
  "rank50000": [
    {
      "userId": 195147737627365380,
      "score": 97050,
      "rank": 50000,
      "isOwn": false,
      "name": "Shun",
      "userCard": {
        "cardId": 67,
        "level": 17,
        "masterRank": 0,
        "specialTrainingStatus": "not_doing",
        "defaultImage": "original"
      },
      "userProfile": {
        "userId": 195147737627365380,
        "word": "",
        "twitterId": "",
        "profileImageType": "leader"
      },
      "userCheerfulCarnival": {}
    }
  ],
  "rank100000": [
    {
      "userId": 162420034906427400,
      "score": 18825,
      "rank": 100000,
      "isOwn": false,
      "name": "akito hates women",
      "userCard": {
        "cardId": 137,
        "level": 50,
        "masterRank": 0,
        "specialTrainingStatus": "done",
        "defaultImage": "original"
      },
      "userProfile": {
        "userId": 162420034906427400,
        "word": "saving for guarantee: 80%!",
        "honorId1": 53,
        "honorLevel1": 2,
        "honorId2": 73,
        "honorLevel2": 1,
        "honorId3": 77,
        "honorLevel3": 1,
        "twitterId": "",
        "profileImageType": "leader"
      },
      "userCheerfulCarnival": {}
    }
  ]
}