{
  "time": 1641618958181,
  "first10": [
    {
      "userId": 162479326359543800,
      "score": 29560726,
      "rank": 1,
      "isOwn": false,
      "name": " Ted",
      "userCard": {
        "cardId": 134,
        "level": 60,
        "masterRank": 5,
        "specialTrainingStatus": "done",
        "defaultImage": "special_training"
      },
      "userProfile": {
        "userId": 162479326359543800,
        "word": "much love",
        "honorId1": 37,
        "honorLevel1": 5,
        "honorId2": 33,
        "honorLevel2": 4,
        "honorId3": 114,
        "honorLevel3": 1,
        "twitterId": "",
        "profileImageType": "leader"
      }
    },
    {
      "userId": 162304911000768500,
      "score": 27260302,
      "rank": 2,
      "isOwn": false,
      "name": "Lemo",
      "userCard": {
        "cardId": 135,
        "level": 60,
        "masterRank": 5,
        "specialTrainingStatus": "done",
        "defaultImage": "original"
      },
      "userProfile": {
        "userId": 162304911000768500,
        "word": "こはね推し　杏こは大好き！！",
        "honorId1": 33,
        "honorLevel1": 5,
        "honorId2": 37,
        "honorLevel2": 4,
        "honorId3": 115,
        "honorLevel3": 1,
        "twitterId": "Lemodcat",
        "profileImageType": "leader"
      }
    },
    {
      "userId": 162348874537648130,
      "score": 22000000,
      "rank": 3,
      "isOwn": false,
      "name": "[B2B] annie",
      "userCard": {
        "cardId": 136,
        "level": 60,
        "masterRank": 0,
        "specialTrainingStatus": "done",
        "defaultImage": "special_training"
      },
      "userProfile": {
        "userId": 162348874537648130,
        "word": "happy 2022 !",
        "honorId2": 73,
        "honorLevel2": 4,
        "honorId3": 41,
        "honorLevel3": 3,
        "twitterId": "a_prsk",
        "profileImageType": "leader"
      }
    },
    {
      "userId": 162325757937393660,
      "score": 15696969,
      "rank": 4,
      "isOwn": false,
      "name": "[G3] Kuri",
      "userCard": {
        "cardId": 134,
        "level": 60,
        "masterRank": 0,
        "specialTrainingStatus": "done",
        "defaultImage": "special_training"
      },
      "userProfile": {
        "userId": 162325757937393660,
        "word": "Luka > breathing",
        "honorId1": 93,
        "honorLevel1": 2,
        "honorId2": 37,
        "honorLevel2": 2,
        "honorId3": 33,
        "honorLevel3": 2,
        "twitterId": "kuricovers",
        "profileImageType": "leader"
      }
    },
    {
      "userId": 163078160131383300,
      "score": 15666000,
      "rank": 5,
      "isOwn": false,
      "name": "[B2B] saph",
      "userCard": {
        "cardId": 137,
        "level": 50,
        "masterRank": 0,
        "specialTrainingStatus": "done",
        "defaultImage": "special_training"
      },
      "userProfile": {
        "userId": 163078160131383300,
        "word": "officially parked ♡",
        "honorId1": 214,
        "honorLevel1": 1,
        "honorId2": 45,
        "honorLevel2": 2,
        "honorId3": 41,
        "honorLevel3": 2,
        "twitterId": "nyxate",
        "profileImageType": "leader"
      }
    },
    {
      "userId": 162768133155790850,
      "score": 15660704,
      "rank": 6,
      "isOwn": false,
      "name": "Erein",
      "userCard": {
        "cardId": 114,
        "level": 60,
        "masterRank": 0,
        "specialTrainingStatus": "done",
        "defaultImage": "special_training"
      },
      "userProfile": {
        "userId": 162768133155790850,
        "word": "『杏こは』『ビビバス』",
        "honorId1": 37,
        "honorLevel1": 3,
        "honorId2": 33,
        "honorLevel2": 2,
        "honorId3": 114,
        "honorLevel3": 1,
        "twitterId": "Erein_",
        "profileImageType": "leader"
      }
    },
    {
      "userId": 162793776799141900,
      "score": 15571222,
      "rank": 7,
      "isOwn": false,
      "name": "[B2B] Arin",
      "userCard": {
        "cardId": 115,
        "level": 60,
        "masterRank": 0,
        "specialTrainingStatus": "done",
        "defaultImage": "special_training"
      },
      "userProfile": {
        "userId": 162793776799141900,
        "word": "Otsu + thanks [B2B]!",
        "honorId1": 41,
        "honorLevel1": 2,
        "twitterId": "",
        "profileImageType": "leader"
      }
    },
    {
      "userId": 162318321318936580,
      "score": 15511120,
      "rank": 8,
      "isOwn": false,
      "name": "karu loves akito",
      "userCard": {
        "cardId": 136,
        "level": 60,
        "masterRank": 0,
        "specialTrainingStatus": "done",
        "defaultImage": "special_training"
      },
      "userProfile": {
        "userId": 162318321318936580,
        "word": "otsu everyone <3",
        "honorId1": 269,
        "honorLevel1": 1,
        "honorId2": 41,
        "honorLevel2": 3,
        "honorId3": 33,
        "honorLevel3": 2,
        "twitterId": "themoonarcana",
        "profileImageType": "leader"
      }
    },
    {
      "userId": 162476825841328130,
      "score": 15476937,
      "rank": 9,
      "isOwn": false,
      "name": "[HGC] + [B2B] druzy!",
      "userCard": {
        "cardId": 135,
        "level": 60,
        "masterRank": 1,
        "specialTrainingStatus": "done",
        "defaultImage": "special_training"
      },
      "userProfile": {
        "userId": 162476825841328130,
        "word": "AZUSAWA WORLD ✧",
        "honorId1": 114,
        "honorLevel1": 1,
        "honorId2": 33,
        "honorLevel2": 3,
        "honorId3": 37,
        "honorLevel3": 3,
        "twitterId": "druzydreaming",
        "profileImageType": "leader"
      }
    },
    {
      "userId": 162695489622405120,
      "score": 15400000,
      "rank": 10,
      "isOwn": false,
      "name": "[B2B] A Fridge",
      "userCard": {
        "cardId": 135,
        "level": 60,
        "masterRank": 3,
        "specialTrainingStatus": "done",
        "defaultImage": "special_training"
      },
      "userProfile": {
        "userId": 162695489622405120,
        "word": "otsukare :)",
        "honorId1": 195,
        "honorLevel1": 1,
        "honorId2": 33,
        "honorLevel2": 2,
        "honorId3": 37,
        "honorLevel3": 2,
        "twitterId": "",
        "profileImageType": "leader"
      }
    }
  ],
  "rank20": [
    {
      "userId": 162306377711140860,
      "score": 13069420,
      "rank": 20,
      "isOwn": false,
      "name": "Heim",
      "userCard": {
        "cardId": 135,
        "level": 60,
        "masterRank": 0,
        "specialTrainingStatus": "done",
        "defaultImage": "original"
      },
      "userProfile": {
        "userId": 162306377711140860,
        "word": "Blessed by Akina",
        "honorId1": 196,
        "honorLevel1": 1,
        "honorId2": 271,
        "honorLevel2": 1,
        "honorId3": 296,
        "honorLevel3": 1,
        "twitterId": "",
        "profileImageType": "leader"
      }
    }
  ],
  "rank30": [
    {
      "userId": 162381810502828030,
      "score": 9106065,
      "rank": 30,
      "isOwn": false,
      "name": "BRING ON REMATCH 31",
      "userCard": {
        "cardId": 134,
        "level": 60,
        "masterRank": 4,
        "specialTrainingStatus": "done",
        "defaultImage": "special_training"
      },
      "userProfile": {
        "userId": 162381810502828030,
        "word": "jk im dying inside 1026#7146",
        "honorId1": 105,
        "honorLevel1": 1,
        "honorId2": 129,
        "honorLevel2": 1,
        "honorId3": 435,
        "honorLevel3": 1,
        "twitterId": "",
        "profileImageType": "leader"
      }
    }
  ],
  "rank40": [
    {
      "userId": 164438970321649660,
      "score": 8295884,
      "rank": 40,
      "isOwn": false,
      "name": "GUND3R",
      "userCard": {
        "cardId": 96,
        "level": 60,
        "masterRank": 0,
        "specialTrainingStatus": "done",
        "defaultImage": "original"
      },
      "userProfile": {
        "userId": 164438970321649660,
        "word": "",
        "honorId1": 357,
        "honorLevel1": 1,
        "honorId2": 264,
        "honorLevel2": 1,
        "honorId3": 286,
        "honorLevel3": 1,
        "twitterId": "",
        "profileImageType": "leader"
      }
    }
  ],
  "rank50": [
    {
      "userId": 162386504633557000,
      "score": 7755762,
      "rank": 50,
      "isOwn": false,
      "name": "andals",
      "userCard": {
        "cardId": 45,
        "level": 20,
        "masterRank": 5,
        "specialTrainingStatus": "not_doing",
        "defaultImage": "original"
      },
      "userProfile": {
        "userId": 162386504633557000,
        "word": "tiering w/this team is hell",
        "honorId1": 25,
        "honorLevel1": 2,
        "honorId2": 37,
        "honorLevel2": 2,
        "honorId3": 73,
        "honorLevel3": 1,
        "twitterId": "",
        "profileImageType": "leader"
      }
    }
  ],
  "rank100": [
    {
      "userId": 162332956772311040,
      "score": 4491355,
      "rank": 100,
      "isOwn": false,
      "name": "Hinomori Gosegu T100",
      "userCard": {
        "cardId": 111,
        "level": 60,
        "masterRank": 5,
        "specialTrainingStatus": "done",
        "defaultImage": "original"
      },
      "userProfile": {
        "userId": 162332956772311040,
        "word": "Shiho | Hello sekaibest viewer",
        "honorId1": 280,
        "honorLevel1": 1,
        "honorId2": 257,
        "honorLevel2": 1,
        "honorId3": 13,
        "honorLevel3": 5,
        "twitterId": "Nerfedstaff",
        "profileImageType": "leader"
      }
    }
  ],
  "rank200": [
    {
      "userId": 165985754349084670,
      "score": 2505467,
      "rank": 200,
      "isOwn": false,
      "name": "senzxc",
      "userCard": {
        "cardId": 35,
        "level": 50,
        "masterRank": 5,
        "specialTrainingStatus": "done",
        "defaultImage": "special_training"
      },
      "userProfile": {
        "userId": 165985754349084670,
        "word": "kohane supremacy",
        "honorId1": 33,
        "honorLevel1": 2,
        "honorId2": 138,
        "honorLevel2": 1,
        "honorId3": 107,
        "honorLevel3": 1,
        "twitterId": "",
        "profileImageType": "leader"
      }
    }
  ],
  "rank300": [
    {
      "userId": 162305508844306430,
      "score": 2019510,
      "rank": 300,
      "isOwn": false,
      "name": "Ren",
      "userCard": {
        "cardId": 136,
        "level": 60,
        "masterRank": 0,
        "specialTrainingStatus": "done",
        "defaultImage": "special_training"
      },
      "userProfile": {
        "userId": 162305508844306430,
        "word": "",
        "honorId1": 196,
        "honorLevel1": 1,
        "honorId2": 65,
        "honorLevel2": 2,
        "honorId3": 107,
        "honorLevel3": 1,
        "twitterId": "",
        "profileImageType": "leader"
      }
    }
  ],
  "rank400": [
    {
      "userId": 164329065300381700,
      "score": 1750053,
      "rank": 400,
      "isOwn": false,
      "name": "Kaede",
      "userCard": {
        "cardId": 137,
        "level": 50,
        "masterRank": 5,
        "specialTrainingStatus": "done",
        "defaultImage": "special_training"
      },
      "userProfile": {
        "userId": 164329065300381700,
        "word": "",
        "honorId1": 45,
        "honorLevel1": 2,
        "honorId2": 37,
        "honorLevel2": 1,
        "honorId3": 235,
        "honorLevel3": 1,
        "twitterId": "",
        "profileImageType": "leader"
      }
    }
  ],
  "rank500": [
    {
      "userId": 162306458216681470,
      "score": 1683221,
      "rank": 500,
      "isOwn": false,
      "name": "Derpy Len",
      "userCard": {
        "cardId": 96,
        "level": 60,
        "masterRank": 5,
        "specialTrainingStatus": "done",
        "defaultImage": "special_training"
      },
      "userProfile": {
        "userId": 162306458216681470,
        "word": "Derpy is my narwhal plushie!",
        "honorId1": 89,
        "honorLevel1": 4,
        "honorId2": 85,
        "honorLevel2": 2,
        "honorId3": 146,
        "honorLevel3": 1,
        "twitterId": "",
        "profileImageType": "leader"
      }
    }
  ],
  "rank1000": [
    {
      "userId": 162325880251678720,
      "score": 1219686,
      "rank": 1000,
      "isOwn": false,
      "name": "Cloche",
      "userCard": {
        "cardId": 114,
        "level": 60,
        "masterRank": 0,
        "specialTrainingStatus": "done",
        "defaultImage": "special_training"
      },
      "userProfile": {
        "userId": 162325880251678720,
        "word": "まふゆちゃん可愛い！",
        "honorId1": 264,
        "honorLevel1": 1,
        "honorId2": 69,
        "honorLevel2": 3,
        "honorId3": 435,
        "honorLevel3": 1,
        "twitterId": "",
        "profileImageType": "leader"
      }
    }
  ],
  "rank2000": [
    {
      "userId": 162937444537266180,
      "score": 834972,
      "rank": 2000,
      "isOwn": false,
      "name": "rosie :3",
      "userCard": {
        "cardId": 117,
        "level": 48,
        "masterRank": 0,
        "specialTrainingStatus": "done",
        "defaultImage": "special_training"
      },
      "userProfile": {
        "userId": 162937444537266180,
        "word": "akitoya real, luka is my wife ",
        "honorId1": 93,
        "honorLevel1": 2,
        "honorId2": 45,
        "honorLevel2": 2,
        "honorId3": 41,
        "honorLevel3": 2,
        "twitterId": "_maoritsu",
        "profileImageType": "leader"
      }
    }
  ],
  "rank3000": [
    {
      "userId": 162351546577743870,
      "score": 703234,
      "rank": 3000,
      "isOwn": false,
      "name": "Herz",
      "userCard": {
        "cardId": 35,
        "level": 50,
        "masterRank": 5,
        "specialTrainingStatus": "done",
        "defaultImage": "special_training"
      },
      "userProfile": {
        "userId": 162351546577743870,
        "word": "",
        "honorId1": 33,
        "honorLevel1": 2,
        "honorId2": 85,
        "honorLevel2": 1,
        "honorId3": 53,
        "honorLevel3": 1,
        "twitterId": "",
        "profileImageType": "leader"
      }
    }
  ],
  "rank4000": [
    {
      "userId": 162336372168962050,
      "score": 629293,
      "rank": 4000,
      "isOwn": false,
      "name": "lawragatajar",
      "userCard": {
        "cardId": 35,
        "level": 50,
        "masterRank": 0,
        "specialTrainingStatus": "done",
        "defaultImage": "special_training"
      },
      "userProfile": {
        "userId": 162336372168962050,
        "word": "",
        "honorId1": 298,
        "honorLevel1": 1,
        "honorId2": 105,
        "honorLevel2": 1,
        "honorId3": 93,
        "honorLevel3": 1,
        "twitterId": "",
        "profileImageType": "leader"
      }
    }
  ],
  "rank5000": [
    {
      "userId": 168756101943238660,
      "score": 588825,
      "rank": 5000,
      "isOwn": false,
      "name": "Oob",
      "userCard": {
        "cardId": 109,
        "level": 60,
        "masterRank": 0,
        "specialTrainingStatus": "done",
        "defaultImage": "special_training"
      },
      "userProfile": {
        "userId": 168756101943238660,
        "word": "",
        "honorId1": 49,
        "honorLevel1": 1,
        "honorId2": 37,
        "honorLevel2": 1,
        "honorId3": 65,
        "honorLevel3": 1,
        "twitterId": "",
        "profileImageType": "leader"
      }
    }
  ],
  "rank10000": [
    {
      "userId": 162353034851053570,
      "score": 394453,
      "rank": 10000,
      "isOwn": false,
      "name": "Gentlemon",
      "userCard": {
        "cardId": 135,
        "level": 60,
        "masterRank": 1,
        "specialTrainingStatus": "done",
        "defaultImage": "special_training"
      },
      "userProfile": {
        "userId": 162353034851053570,
        "word": "KOHANE! WOO YEAH! HAMSTER!",
        "honorId1": 273,
        "honorLevel1": 1,
        "honorId2": 33,
        "honorLevel2": 3,
        "honorId3": 134,
        "honorLevel3": 1,
        "twitterId": "Gentlemon4",
        "profileImageType": "leader"
      }
    }
  ],
  "rank20000": [
    {
      "userId": 162307090432405500,
      "score": 236431,
      "rank": 20000,
      "isOwn": false,
      "name": "Saliva",
      "userCard": {
        "cardId": 134,
        "level": 22,
        "masterRank": 0,
        "specialTrainingStatus": "not_doing",
        "defaultImage": "original"
      },
      "userProfile": {
        "userId": 162307090432405500,
        "word": "Rui Sonic Drip Enthusiast",
        "honorId1": 218,
        "honorLevel1": 1,
        "honorId2": 61,
        "honorLevel2": 3,
        "honorId3": 57,
        "honorLevel3": 2,
        "twitterId": "",
        "profileImageType": "leader"
      }
    }
  ],
  "rank30000": [
    {
      "userId": 171429186051821570,
      "score": 164128,
      "rank": 30000,
      "isOwn": false,
      "name": "kekrial",
      "userCard": {
        "cardId": 79,
        "level": 50,
        "masterRank": 2,
        "specialTrainingStatus": "done",
        "defaultImage": "special_training"
      },
      "userProfile": {
        "userId": 171429186051821570,
        "profileImageType": "leader"
      }
    }
  ],
  "rank40000": [
    {
      "userId": 165594641255649280,
      "score": 110464,
      "rank": 40000,
      "isOwn": false,
      "name": "Ki",
      "userCard": {
        "cardId": 119,
        "level": 37,
        "masterRank": 0,
        "specialTrainingStatus": "not_doing",
        "defaultImage": "original"
      },
      "userProfile": {
        "userId": 165594641255649280,
        "word": "",
        "honorId1": 81,
        "honorLevel1": 1,
        "honorId2": 138,
        "honorLevel2": 1,
        "honorId3": 105,
        "honorLevel3": 1,
        "twitterId": "",
        "profileImageType": "leader"
      }
    }
  ],
  "rank50000": [
    {
      "userId": 163689291946463230,
      "score": 75518,
      "rank": 50000,
      "isOwn": false,
      "name": "miu!!",
      "userCard": {
        "cardId": 96,
        "level": 60,
        "masterRank": 0,
        "specialTrainingStatus": "done",
        "defaultImage": "special_training"
      },
      "userProfile": {
        "userId": 163689291946463230,
        "word": "big ballz",
        "honorId1": 61,
        "honorLevel1": 1,
        "honorId2": 279,
        "honorLevel2": 1,
        "honorId3": 205,
        "honorLevel3": 1,
        "twitterId": "",
        "profileImageType": "leader"
      }
    }
  ],
  "rank100000": [
    {
      "userId": 162862392345133060,
      "score": 11890,
      "rank": 100000,
      "isOwn": false,
      "name": "Elia",
      "userCard": {
        "cardId": 105,
        "level": 20,
        "masterRank": 0,
        "specialTrainingStatus": "not_doing",
        "defaultImage": "original"
      },
      "userProfile": {
        "userId": 162862392345133060,
        "word": "",
        "twitterId": "",
        "profileImageType": "leader"
      }
    }
  ]
}